<?xml version="1.0" encoding="utf-8"?>
<svg xmlns="http://www.w3.org/2000/svg"
	xmlns:xlink="http://www.w3.org/1999/xlink"
	width="52px" height="13px" viewBox="0 0 52 13">
<path fillRule="evenodd" d="M 0.71 7.69C 0.71 7.69 46.18 7.69 46.18 7.69 46.18 7.69 40.96 12.7 40.96 12.7 40.96 12.7 44.65 12.7 44.65 12.7 44.65 12.7 51.18 6.43 51.18 6.43 51.18 6.43 44.65 0.17 44.65 0.17 44.65 0.17 40.96 0.17 40.96 0.17 40.96 0.17 46.18 5.18 46.18 5.18 46.18 5.18 0.71 5.18 0.71 5.18 0.71 5.18 0.71 7.69 0.71 7.69Z" fill="rgb(0,0,0)"/></svg>